{
  "uri": "000294/SINL-CPE-011-2020//ocds-7wj9x5-SINL-CPE-011-2020-RCPv001-contract.json",
  "publisher": {
    "scheme": "Instituciones Gubernamentales NL",
    "uid": "211113110100001",
    "name": "Secretaría de Infraestructura del Estado de Nuevo León",
    "uri": "http://si.nl.gob.mx"
  },
  "publishedDate": "2020-09-17T00:02:56-05:00",
  "license": "https://datos.gob.mx/libreusomx",
  "publicationPolicy": "http://si.nl.gob.mx/PoliticaPublicacionDatos/",
  "version": "1.1",
  "packages": [
    "https://raw.githubusercontent.com/INAImexico/ocds_requestForQuotes_extension/master/extension.json"
  ],
  "records": [
    {
      "ocid": "ocds-7wj9x5-SINL-CPE-011-2020",
      "releases": [
        {
          "url": "000294/SINL-CPE-011-2020//ocds-7wj9x5-SINL-CPE-011-2020-RLPv001-contract.json",
          "date": "2020-09-17T00:02:56-05:00",
          "tag": [
            "tender"
          ]
        }
      ],
      "compiledRelease": {
        "ocid": "ocds-7wj9x5-SINL-CPE-011-2020",
        "id": "ocds-7wj9x5-SINL-CPE-011-2020-v001-contract",
        "date": "2020-09-17T00:02:54-05:00",
        "tag": [
          "planning",
          "tender",
          "award",
          "contract"
        ],
        "initiationType": "tender",
        "parties": [
          {
            "name": "Secretaría de Infraestructura del Estado de Nuevo León",
            "id": "MX-IGNL-211113110100001",
            "identifier": {
              "scheme": "MX-IGNL",
              "id": "211113110100001",
              "legalName": "Secretaría de Infraestructura del Estado de Nuevo León"
            },
            "address": {
              "streetAddress": "Washington",
              "locality": "Monterrey",
              "region": "Nuevo León",
              "postalCode": "64010",
              "countryName": "México"
            },
            "contactPoint": {
              "name": "Humberto Torres Padilla",
              "email": "humberto.torres@nuevoleon.gob.mx",
              "telephone": "8120206730",
              "url": "http://si.nl.gob.mx"
            },
            "roles": [
              "procuringEntity"
            ]
          },
          {
            "name": "Secretaría de Finanzas y Tesorería General del Estado del Estado de Nuevo León",
            "id": "MX-IGNL-211113040100001",
            "identifier": {
              "scheme": "MX-IGNL",
              "id": "211113040100001",
              "legalName": "Secretaría de Finanzas y Tesorería General del Estado del Estado de Nuevo León"
            },
            "address": {
              "streetAddress": "Washington",
              "locality": "Monterrey",
              "region": "Nuevo León",
              "postalCode": "64010",
              "countryName": "México"
            },
            "contactPoint": {
              "name": "Carlos Alberto Garza Ibarra",
              "email": "carlos.garza@nuevoleon.gob.mx",
              "telephone": "8120201580",
              "url": "http://www.nl.gob.mx/dependencias"
            },
            "roles": [
              "payer"
            ]
          },
          {
            "name": "Mpio. Allende",
            "id": "MX-IGNL-31111322010000004",
            "identifier": {
              "scheme": "MX-IGNL",
              "id": "31111322010000004",
              "legalName": "Mpio. Allende"
            },
            "address": {
              "streetAddress": "Washington",
              "locality": "Monterrey",
              "region": "Nuevo León",
              "postalCode": "64010",
              "countryName": "México"
            },
            "contactPoint": {
              "name": "Jesús Salvador Pérez Rodríguez",
              "email": "salvador.perez @nuevoleon.gob.mx",
              "telephone": "8120206730",
              "url": "http://www.nl.gob.mx/dependencias"
            },
            "roles": [
              "buyer"
            ]
          },
          {
            "name": "EXECUCION DE MEXICO SA DE CV",
            "id": "MX-RFC-EME020423QC1",
            "identifier": {
              "scheme": "MX-RFC",
              "id": "EME020423QC1",
              "legalName": "EXECUCION DE MEXICO SA DE CV"
            },
            "roles": [
              "tenderer"
            ]
          },
          {
            "name": "CONSTRUCTORA ROGACU, S.A. DE C.V.",
            "id": "MX-RFC-CRO910807BV7",
            "identifier": {
              "scheme": "MX-RFC",
              "id": "CRO910807BV7",
              "legalName": "CONSTRUCTORA ROGACU, S.A. DE C.V."
            },
            "contactPoint": {
              "name": "Guillermo Victor Rodríguez Dávila ",
              "email": "delia.cantu@gmail.com",
              "telephone": "83171337"
            },
            "roles": [
              "tenderer"
            ]
          },
          {
            "name": "KABATAS, S.A. DE C.V.",
            "id": "MX-RFC-KAB160516DN2",
            "identifier": {
              "scheme": "MX-RFC",
              "id": "KAB160516DN2",
              "legalName": "KABATAS, S.A. DE C.V."
            },
            "address": {
              "streetAddress": "VALLE DEL CHAMPAGNE  349",
              "locality": "GUADALUPE",
              "postalCode": "64174"
            },
            "contactPoint": {
              "name": "MAURICIO ALEJANDRO PARODI FLORES",
              "email": "mauricioparodi@hotmail.com",
              "telephone": "4423810778"
            },
            "roles": [
              "tenderer"
            ]
          },
          {
            "name": "ESPACIOS 6, S.A. DE C.V.",
            "id": "MX-RFC-ESE150320FK6",
            "identifier": {
              "scheme": "MX-RFC",
              "id": "ESE150320FK6",
              "legalName": "ESPACIOS 6, S.A. DE C.V."
            },
            "roles": [
              "tenderer"
            ]
          },
          {
            "name": "BUFETTE DE OBRAS SERVICIOS Y SUMINISTROS, S.A. DE C.V.",
            "id": "MX-RFC-BOS920528KI9",
            "identifier": {
              "scheme": "MX-RFC",
              "id": "BOS920528KI9",
              "legalName": "BUFETTE DE OBRAS SERVICIOS Y SUMINISTROS, S.A. DE C.V."
            },
            "contactPoint": {
              "name": "JORGE ALEJANDRO ALVARADO GUERRERO",
              "email": "jorge.garza@bossmty.com.mx",
              "telephone": "8184763051"
            },
            "roles": [
              "tenderer"
            ]
          },
          {
            "name": "CONSTRUCCIONES DYNAMO, S.A. DE C.V.",
            "id": "MX-RFC-CDY980323MA8",
            "identifier": {
              "scheme": "MX-RFC",
              "id": "CDY980323MA8",
              "legalName": "CONSTRUCCIONES DYNAMO, S.A. DE C.V."
            },
            "contactPoint": {
              "name": "CESAR EDUARDO GARCIA GUERRERO",
              "email": "dynamo27@prodigy.net.mx",
              "telephone": "52 81 83550589 "
            },
            "roles": [
              "tenderer",
              "supplier"
            ]
          },
          {
            "name": "CKT EDIFICACIONES, S.A. DE C.V.",
            "id": "MX-RFC-CED160218FH6",
            "identifier": {
              "scheme": "MX-RFC",
              "id": "CED160218FH6",
              "legalName": "CKT EDIFICACIONES, S.A. DE C.V."
            },
            "address": {
              "streetAddress": "AVE. CENTRAL  LOTE N.2",
              "locality": "SABINAS HIDALGO",
              "postalCode": "65240"
            },
            "contactPoint": {
              "name": "LUIS VICENTE FLORES ANCIRA",
              "email": "gerencia@construktor.org",
              "telephone": "8110633704"
            },
            "roles": [
              "tenderer"
            ]
          },
          {
            "name": "KC PROYECTOS Y CONSTRUCCIONES",
            "id": "MX-RFC-KPC9301099K1",
            "identifier": {
              "scheme": "MX-RFC",
              "id": "KPC9301099K1",
              "legalName": "KC PROYECTOS Y CONSTRUCCIONES"
            },
            "roles": [
              "tenderer"
            ]
          }
        ],
        "buyer": {
          "id": "MX-IGNL-31111322010000004",
          "name": "Mpio. Allende"
        },
        "planning": {
          "rationale": "34,518",
          "x_numberOfBeneficiaries": "34,518",
          "budget": {
            "id": "MX-IGNL-33",
            "description": "Municipio Allende 2020",
            "amount": {
              "amount": 11100000.0,
              "currency": "MXN"
            },
            "project": "Adecuación al Teatro Municipal de Allende",
            "projectID": "oc4ids-gx3fo2-000294"
          },
          "documents": [
            {
              "id": "409",
              "documentType": "projectPlan",
              "title": "Proyecto ejecutivo",
              "description": "Proyecto ejecutivo",
              "url": "http://si.nl.gob.mx/acceso/DatosAbiertos/DocumentosPublicos/Proyecto_0000294/Concurso_0000652/PROYECTO EJECUTIVO_20200707 100249..zip",
              "datePublished": "2020-09-16T12:48:43-05:00",
              "format": "application/zip",
              "language": "es",
              "x_section": "planning"
            },
            {
              "id": "412",
              "documentType": "marketStudies",
              "title": "Estudio de mercado",
              "description": "Estudio de mercado",
              "url": "http://si.nl.gob.mx/acceso/DatosAbiertos/DocumentosPublicos/Proyecto_0000294/Concurso_0000652/78.-RESUMENSOLVENTES.pdf",
              "datePublished": "2020-09-16T12:50:17-05:00",
              "format": "application/pdf",
              "language": "es",
              "x_section": "planning"
            }
          ]
        },
        "tender": {
          "id": "SINL-CPE-011-2020",
          "title": "Adecuación al Teatro Municipal de  Allende ( Áreas Generales y Complementarias) ",
          "description": "Los trabajos a realizar son: la remodelacion del lobby interior, exterior, camerinos, salón polivalente, taquilla, oficinas, snack, sanitarios y la calle peatonal así como la cisterna y el cuarto de máquinas.",
          "status": "complete",
          "procuringEntity": {
            "name": "Secretaría de Infraestructura del Estado de Nuevo León",
            "id": "MX-IGNL-211113110100001"
          },
          "items": [
            {
              "id": "000000362",
              "description": "001 VESTIBULO OFICINAS, PRELIMINARES",
              "classification": {
                "scheme": "SINL-CU-C",
                "id": "000000362",
                "description": "001 VESTIBULO OFICINAS, PRELIMINARES"
              },
              "quantity": 1.0,
              "unit": {
                "scheme": "SINL-CU-U",
                "id": "000000221",
                "name": "LOTE",
                "value": {
                  "amount": 1808192.84,
                  "currency": "MXN"
                }
              }
            },
            {
              "id": "000000563",
              "description": "002 MOVIMIENTO DE TIERRAS",
              "classification": {
                "scheme": "SINL-CU-C",
                "id": "000000563",
                "description": "002 MOVIMIENTO DE TIERRAS"
              },
              "quantity": 1.0,
              "unit": {
                "scheme": "SINL-CU-U",
                "id": "000000221",
                "name": "LOTE",
                "value": {
                  "amount": 245067.91,
                  "currency": "MXN"
                }
              }
            },
            {
              "id": "000000727",
              "description": "003 ALBAÑILERÍA",
              "classification": {
                "scheme": "SINL-CU-C",
                "id": "000000727",
                "description": "003 ALBAÑILERÍA"
              },
              "quantity": 1.0,
              "unit": {
                "scheme": "SINL-CU-U",
                "id": "000000221",
                "name": "LOTE",
                "value": {
                  "amount": 4013361.76,
                  "currency": "MXN"
                }
              }
            },
            {
              "id": "000001233",
              "description": "004 SUPERESTRUCTURA",
              "classification": {
                "scheme": "SINL-CU-C",
                "id": "000001233",
                "description": "004 SUPERESTRUCTURA"
              },
              "quantity": 1.0,
              "unit": {
                "scheme": "SINL-CU-U",
                "id": "000000221",
                "name": "LOTE",
                "value": {
                  "amount": 17546366.4,
                  "currency": "MXN"
                }
              }
            },
            {
              "id": "000001401",
              "description": "005 CARPINTERÍA",
              "classification": {
                "scheme": "SINL-CU-C",
                "id": "000001401",
                "description": "005 CARPINTERÍA"
              },
              "quantity": 1.0,
              "unit": {
                "scheme": "SINL-CU-U",
                "id": "000000221",
                "name": "LOTE",
                "value": {
                  "amount": 3784712.79,
                  "currency": "MXN"
                }
              }
            },
            {
              "id": "000001595",
              "description": "006 CANCELERÍA",
              "classification": {
                "scheme": "SINL-CU-C",
                "id": "000001595",
                "description": "006 CANCELERÍA"
              },
              "quantity": 1.0,
              "unit": {
                "scheme": "SINL-CU-U",
                "id": "000000221",
                "name": "LOTE",
                "value": {
                  "amount": 9506449.24,
                  "currency": "MXN"
                }
              }
            },
            {
              "id": "000001787",
              "description": "007 ACABADOS",
              "classification": {
                "scheme": "SINL-CU-C",
                "id": "000001787",
                "description": "007 ACABADOS"
              },
              "quantity": 1.0,
              "unit": {
                "scheme": "SINL-CU-U",
                "id": "000000221",
                "name": "LOTE",
                "value": {
                  "amount": 12366169.35,
                  "currency": "MXN"
                }
              }
            },
            {
              "id": "000002027",
              "description": "008 INFRAESTRUCTURA Y SERVICIOS URBANOS",
              "classification": {
                "scheme": "SINL-CU-C",
                "id": "000002027",
                "description": "008 INFRAESTRUCTURA Y SERVICIOS URBANOS"
              },
              "quantity": 1.0,
              "unit": {
                "scheme": "SINL-CU-U",
                "id": "000000221",
                "name": "LOTE",
                "value": {
                  "amount": 2416136.39,
                  "currency": "MXN"
                }
              }
            },
            {
              "id": "000002209",
              "description": "009 INSTALACIONES HIDRAULICAS",
              "classification": {
                "scheme": "SINL-CU-C",
                "id": "000002209",
                "description": "009 INSTALACIONES HIDRAULICAS"
              },
              "quantity": 1.0,
              "unit": {
                "scheme": "SINL-CU-U",
                "id": "000000221",
                "name": "LOTE",
                "value": {
                  "amount": 91211.56,
                  "currency": "MXN"
                }
              }
            },
            {
              "id": "000002381",
              "description": "010 INSTALACIONES SANITARIAS",
              "classification": {
                "scheme": "SINL-CU-C",
                "id": "000002381",
                "description": "010 INSTALACIONES SANITARIAS"
              },
              "quantity": 1.0,
              "unit": {
                "scheme": "SINL-CU-U",
                "id": "000000221",
                "name": "LOTE",
                "value": {
                  "amount": 151894.66,
                  "currency": "MXN"
                }
              }
            },
            {
              "id": "000002540",
              "description": "011 LÍNEA DE DESCARGA A REGISTRO (SANITARIO)",
              "classification": {
                "scheme": "SINL-CU-C",
                "id": "000002540",
                "description": "011 LÍNEA DE DESCARGA A REGISTRO (SANITARIO)"
              },
              "quantity": 1.0,
              "unit": {
                "scheme": "SINL-CU-U",
                "id": "000000221",
                "name": "LOTE",
                "value": {
                  "amount": 66838.22,
                  "currency": "MXN"
                }
              }
            },
            {
              "id": "000002673",
              "description": "012 MUEBLES SANITARIOS",
              "classification": {
                "scheme": "SINL-CU-C",
                "id": "000002673",
                "description": "012 MUEBLES SANITARIOS"
              },
              "quantity": 1.0,
              "unit": {
                "scheme": "SINL-CU-U",
                "id": "000000221",
                "name": "LOTE",
                "value": {
                  "amount": 7567572.78,
                  "currency": "MXN"
                }
              }
            },
            {
              "id": "000002824",
              "description": "013 SEÑALÉTICA",
              "classification": {
                "scheme": "SINL-CU-C",
                "id": "000002824",
                "description": "013 SEÑALÉTICA"
              },
              "quantity": 1.0,
              "unit": {
                "scheme": "SINL-CU-U",
                "id": "000000221",
                "name": "LOTE",
                "value": {
                  "amount": 3339776.48,
                  "currency": "MXN"
                }
              }
            },
            {
              "id": "000002865",
              "description": "014 AREA EXTERIOR PRELIMINARES",
              "classification": {
                "scheme": "SINL-CU-C",
                "id": "000002865",
                "description": "014 AREA EXTERIOR PRELIMINARES"
              },
              "quantity": 1.0,
              "unit": {
                "scheme": "SINL-CU-U",
                "id": "000000221",
                "name": "LOTE",
                "value": {
                  "amount": 1362197.4,
                  "currency": "MXN"
                }
              }
            },
            {
              "id": "000003043",
              "description": "015 MOVIMIENTO DE TIERRAS",
              "classification": {
                "scheme": "SINL-CU-C",
                "id": "000003043",
                "description": "015 MOVIMIENTO DE TIERRAS"
              },
              "quantity": 1.0,
              "unit": {
                "scheme": "SINL-CU-U",
                "id": "000000221",
                "name": "LOTE",
                "value": {
                  "amount": 804255.61,
                  "currency": "MXN"
                }
              }
            },
            {
              "id": "000003078",
              "description": "016 ALBAÑILERÍA",
              "classification": {
                "scheme": "SINL-CU-C",
                "id": "000003078",
                "description": "016 ALBAÑILERÍA"
              },
              "quantity": 1.0,
              "unit": {
                "scheme": "SINL-CU-U",
                "id": "000000221",
                "name": "LOTE",
                "value": {
                  "amount": 8771091.28,
                  "currency": "MXN"
                }
              }
            },
            {
              "id": "000003190",
              "description": "017 INFRAESTRUCTURA Y SERVICIOS URBANOS",
              "classification": {
                "scheme": "SINL-CU-C",
                "id": "000003190",
                "description": "017 INFRAESTRUCTURA Y SERVICIOS URBANOS"
              },
              "quantity": 1.0,
              "unit": {
                "scheme": "SINL-CU-U",
                "id": "000000221",
                "name": "LOTE",
                "value": {
                  "amount": 679645.38,
                  "currency": "MXN"
                }
              }
            },
            {
              "id": "000003260",
              "description": "018 EQUIPAMIENTO URBANO",
              "classification": {
                "scheme": "SINL-CU-C",
                "id": "000003260",
                "description": "018 EQUIPAMIENTO URBANO"
              },
              "quantity": 1.0,
              "unit": {
                "scheme": "SINL-CU-U",
                "id": "000000221",
                "name": "LOTE",
                "value": {
                  "amount": 7616062.05,
                  "currency": "MXN"
                }
              }
            },
            {
              "id": "000003316",
              "description": "019 ALUMBRADO",
              "classification": {
                "scheme": "SINL-CU-C",
                "id": "000003316",
                "description": "019 ALUMBRADO"
              },
              "quantity": 1.0,
              "unit": {
                "scheme": "SINL-CU-U",
                "id": "000000221",
                "name": "LOTE",
                "value": {
                  "amount": 1944299.52,
                  "currency": "MXN"
                }
              }
            },
            {
              "id": "000003407",
              "description": "020 LIMPIEZA FINAL DE LA OBRA",
              "classification": {
                "scheme": "SINL-CU-C",
                "id": "000003407",
                "description": "020 LIMPIEZA FINAL DE LA OBRA"
              },
              "quantity": 1.0,
              "unit": {
                "scheme": "SINL-CU-U",
                "id": "000000221",
                "name": "LOTE",
                "value": {
                  "amount": 323379.44,
                  "currency": "MXN"
                }
              }
            },
            {
              "id": "000003442",
              "description": "021 CISTERNA Y CUARTO DE MAQUINA PRELIMINARES",
              "classification": {
                "scheme": "SINL-CU-C",
                "id": "000003442",
                "description": "021 CISTERNA Y CUARTO DE MAQUINA PRELIMINARES"
              },
              "quantity": 1.0,
              "unit": {
                "scheme": "SINL-CU-U",
                "id": "000000221",
                "name": "LOTE",
                "value": {
                  "amount": 7341438.13,
                  "currency": "MXN"
                }
              }
            },
            {
              "id": "000003498",
              "description": "022 ESTRUCTURA EN ESCALERAS",
              "classification": {
                "scheme": "SINL-CU-C",
                "id": "000003498",
                "description": "022 ESTRUCTURA EN ESCALERAS"
              },
              "quantity": 1.0,
              "unit": {
                "scheme": "SINL-CU-U",
                "id": "000000221",
                "name": "LOTE",
                "value": {
                  "amount": 10292305.41,
                  "currency": "MXN"
                }
              }
            },
            {
              "id": "000003543",
              "description": "023 ELECTRICO E ILUMINACIÓN",
              "classification": {
                "scheme": "SINL-CU-C",
                "id": "000003543",
                "description": "023 ELECTRICO E ILUMINACIÓN"
              },
              "quantity": 1.0,
              "unit": {
                "scheme": "SINL-CU-U",
                "id": "000000221",
                "name": "LOTE",
                "value": {
                  "amount": 18866267.48,
                  "currency": "MXN"
                }
              }
            }
          ],
          "value": {
            "amount": 8711866.05,
            "currency": "MXN"
          },
          "minValue": {
            "amount": 8711866.05,
            "currency": "MXN"
          },
          "procurementMethod": "open",
          "procurementMethodDetails": "Licitación Estatal",
          "procurementMethodRationale": "Justificación para el método de compra elegido",
          "mainProcurementCategory": "works",
          "awardCriteria": "ratedCriteria",
          "awardCriteriaDetails": "Para la adjudicación del contrato LA DEPENDENCIA efectuará un análisis comparativo de las propuestas admitidas que no fueron desechadas en el aspecto legal, técnico o económico y elaborará un dictamen en el que se tomaran en cuenta los criterios generales de adjudicación expresados en la Convocatoria.",
          "submissionMethod": [
            "inPerson"
          ],
          "submissionMethodDetails": "El representante del licitante deberá presentar en persona su oferta escrita en sobre cerrado",
          "tenderPeriod": {
            "startDate": "2020-07-08T00:00:00-05:00",
            "endDate": "2020-08-03T00:00:00-05:00",
            "maxExtentDate": "2020-08-03T00:00:00-05:00",
            "durationInDays": 26
          },
          "enquiryPeriod": {
            "startDate": "2020-07-08T00:00:00-05:00",
            "endDate": "2020-07-23T00:00:00-05:00",
            "maxExtentDate": "2020-07-23T00:00:00-05:00",
            "durationInDays": 15
          },
          "hasEnquiries": true,
          "eligibilityCriteria": "El criterio establecido por los artículos 54 y 55 de la Ley de obras públicas para el estado y municipios de Nuevo León",
          "awardPeriod": {
            "startDate": "2020-08-03T00:00:00-05:00",
            "endDate": "2020-08-19T00:00:00-05:00",
            "maxExtentDate": "2020-09-18T00:00:00-05:00",
            "durationInDays": 16
          },
          "contractPeriod": {
            "startDate": "2020-08-19T00:00:00-05:00",
            "endDate": "2020-08-20T00:00:00-05:00",
            "maxExtentDate": "2020-08-27T00:00:00-05:00",
            "durationInDays": 1
          },
          "numberOfTenderers": 8,
          "tenderers": [
            {
              "name": "EXECUCION DE MEXICO SA DE CV",
              "id": "MX-RFC-EME020423QC1"
            },
            {
              "name": "CONSTRUCTORA ROGACU, S.A. DE C.V.",
              "id": "MX-RFC-CRO910807BV7"
            },
            {
              "name": "KABATAS, S.A. DE C.V.",
              "id": "MX-RFC-KAB160516DN2"
            },
            {
              "name": "ESPACIOS 6, S.A. DE C.V.",
              "id": "MX-RFC-ESE150320FK6"
            },
            {
              "name": "BUFETTE DE OBRAS SERVICIOS Y SUMINISTROS, S.A. DE C.V.",
              "id": "MX-RFC-BOS920528KI9"
            },
            {
              "name": "CONSTRUCCIONES DYNAMO, S.A. DE C.V.",
              "id": "MX-RFC-CDY980323MA8"
            },
            {
              "name": "CKT EDIFICACIONES, S.A. DE C.V.",
              "id": "MX-RFC-CED160218FH6"
            },
            {
              "name": "KC PROYECTOS Y CONSTRUCCIONES",
              "id": "MX-RFC-KPC9301099K1"
            }
          ],
          "documents": [
            {
              "id": "378",
              "documentType": "tenderNotice\r\n",
              "title": "Resumen de convocatoria a la licitación pública",
              "description": "Resumen de convocatoria a la licitación pública",
              "url": "http://si.nl.gob.mx/acceso/DatosAbiertos/DocumentosPublicos/Proyecto_0000294/Concurso_0000652/CONVOCATORIA_20200708_110500..pdf",
              "datePublished": "2020-07-23T18:57:29-05:00",
              "dateModified": "0001-01-01T00:00:00",
              "format": "application/pdf",
              "language": "es",
              "x_section": "tender"
            },
            {
              "id": "382",
              "documentType": "tenderNotice",
              "title": "Convocatoria de licitaciones",
              "description": "Convocatoria de licitaciones",
              "url": "http://si.nl.gob.mx/acceso/DatosAbiertos/DocumentosPublicos/Proyecto_0000294/Concurso_0000652/BASES_SINLCPE011020..pdf",
              "datePublished": "2020-07-23T20:51:04-05:00",
              "dateModified": "0001-01-01T00:00:00",
              "format": "application/pdf",
              "language": "es",
              "x_section": "tender"
            },
            {
              "id": "383",
              "documentType": "clarifications",
              "title": "Acta de juntas de aclaraciones a las preguntas de los licitantes",
              "description": "Acta de juntas de aclaraciones a las preguntas de los licitantes",
              "url": "http://si.nl.gob.mx/acceso/DatosAbiertos/DocumentosPublicos/Proyecto_0000294/Concurso_0000652/JUNTA_DE_ACLARACIONES_CPE-011-2020.pdf",
              "datePublished": "2020-07-23T20:56:00-05:00",
              "dateModified": "0001-01-01T00:00:00",
              "format": "application/pdf",
              "language": "es",
              "x_section": "tender"
            },
            {
              "id": "384",
              "documentType": "clarifications",
              "title": "Acta de juntas de aclaraciones a las preguntas de los licitantes",
              "description": "Acta de juntas de aclaraciones a las preguntas de los licitantes",
              "url": "http://si.nl.gob.mx/acceso/DatosAbiertos/DocumentosPublicos/Proyecto_0000294/Concurso_0000652/2da_JUNTA_DE_ACLARACIONES_CPE-011-2020.pdf",
              "datePublished": "2020-07-23T20:56:30-05:00",
              "dateModified": "0001-01-01T00:00:00",
              "format": "application/pdf",
              "language": "es",
              "x_section": "tender"
            },
            {
              "id": "385",
              "documentType": "clarifications",
              "title": "Acta de juntas de aclaraciones a las preguntas de los licitantes",
              "description": "Acta de juntas de aclaraciones a las preguntas de los licitantes",
              "url": "http://si.nl.gob.mx/acceso/DatosAbiertos/DocumentosPublicos/Proyecto_0000294/Concurso_0000652/3era_JUNTA_DE_ACLARACIONES_CPE-011-2020.pdf",
              "datePublished": "2020-07-23T20:57:14-05:00",
              "dateModified": "0001-01-01T00:00:00",
              "format": "application/pdf",
              "language": "es",
              "x_section": "tender"
            },
            {
              "id": "386",
              "documentType": "hearingNotice",
              "title": "Registro de asistencia de la visita a las instalaciones",
              "description": "Registro de asistencia de la visita a las instalaciones",
              "url": "http://si.nl.gob.mx/acceso/DatosAbiertos/DocumentosPublicos/Proyecto_0000294/Concurso_0000652/12_ACTA_VISITA_CPE-011-2020.pdf",
              "datePublished": "2020-07-24T09:46:57-05:00",
              "dateModified": "0001-01-01T00:00:00",
              "format": "application/pdf",
              "language": "es",
              "x_section": "tender"
            },
            {
              "id": "391",
              "documentType": "submissionDocuments",
              "title": "Acta de presentación y apertura de propuestas de licitaciones",
              "description": "Acta de presentación y apertura de propuestas de licitaciones",
              "url": "http://si.nl.gob.mx/acceso/DatosAbiertos/DocumentosPublicos/Proyecto_0000294/Concurso_0000652/APERTURATECNICA _CPE-011-2020.pdf",
              "datePublished": "2020-08-14T11:43:48-05:00",
              "dateModified": "0001-01-01T00:00:00",
              "format": "application/pdf",
              "language": "es",
              "x_section": "tender"
            },
            {
              "id": "392",
              "documentType": "submissionDocuments",
              "title": "Acta de presentación y apertura de propuestas de licitaciones",
              "description": "Acta de presentación y apertura de propuestas de licitaciones",
              "url": "http://si.nl.gob.mx/acceso/DatosAbiertos/DocumentosPublicos/Proyecto_0000294/Concurso_0000652/APERTURAECONOMICA_CPE-011-2020.pdf",
              "datePublished": "2020-08-14T11:44:33-05:00",
              "dateModified": "0001-01-01T00:00:00",
              "format": "application/pdf",
              "language": "es",
              "x_section": "tender"
            },
            {
              "id": "410",
              "documentType": "technicalSpecifications",
              "title": "Anexos de convocatoria",
              "description": "Anexos de Convocatoria",
              "url": "http://si.nl.gob.mx/acceso/DatosAbiertos/DocumentosPublicos/Proyecto_0000294/Concurso_0000652/ESPECIFICACIONES TÉCNICAS_20200707 100449..pdf",
              "datePublished": "2020-09-16T12:49:07-05:00",
              "dateModified": "0001-01-01T00:00:00",
              "format": "application/pdf",
              "language": "es",
              "x_section": "tender"
            },
            {
              "id": "411",
              "documentType": "technicalSpecifications",
              "title": "Anexos de convocatoria",
              "description": "Anexos de Convocatoria",
              "url": "http://si.nl.gob.mx/acceso/DatosAbiertos/DocumentosPublicos/Proyecto_0000294/Concurso_0000652/10.-ANEXOS.pdf",
              "datePublished": "2020-09-16T12:49:55-05:00",
              "dateModified": "0001-01-01T00:00:00",
              "format": "application/pdf",
              "language": "es",
              "x_section": "tender"
            }
          ],
          "milestones": [
            {
              "id": "SINL-CPE-011-2020-16265",
              "title": "PRE BASES",
              "type": "preProcurement",
              "description": "PRE BASES",
              "code": "PRE BASES",
              "dueDate": "2020-03-13T00:00:00-06:00",
              "dateMet": "2020-03-13T00:00:00-06:00",
              "dateModified": "2020-03-13T00:00:00-06:00",
              "status": "met"
            },
            {
              "id": "SINL-CPE-011-2020-16266",
              "title": "CONVOCATORIA",
              "type": "preProcurement",
              "description": "CONVOCATORIA",
              "code": "CONVOCATORIA",
              "dueDate": "2020-07-08T00:00:00-05:00",
              "dateMet": "2020-07-08T00:00:00-05:00",
              "dateModified": "2020-07-08T00:00:00-05:00",
              "status": "met"
            },
            {
              "id": "SINL-CPE-011-2020-16267",
              "title": "VISITA A LA OBRA",
              "type": "preProcurement",
              "description": "VISITA A LA OBRA",
              "code": "VISITA A LA OBRA",
              "dueDate": "2020-07-17T00:00:00-05:00",
              "dateMet": "2020-07-17T00:00:00-05:00",
              "dateModified": "2020-07-17T00:00:00-05:00",
              "status": "met"
            },
            {
              "id": "SINL-CPE-011-2020-16268",
              "title": "JUNTA DE ACLARACIONES",
              "type": "preProcurement",
              "description": "JUNTA DE ACLARACIONES",
              "code": "JUNTA DE ACLARACIONES",
              "dueDate": "2020-07-23T00:00:00-05:00",
              "dateMet": "2020-07-23T00:00:00-05:00",
              "dateModified": "2020-07-23T00:00:00-05:00",
              "status": "met"
            },
            {
              "id": "SINL-CPE-011-2020-16270",
              "title": "APERTURA TÉCNICA",
              "type": "assessment",
              "description": "APERTURA TÉCNICA",
              "code": "APERTURA TÉCNICA",
              "dueDate": "2020-08-03T00:00:00-05:00",
              "dateMet": "2020-08-03T00:00:00-05:00",
              "dateModified": "2020-08-03T00:00:00-05:00",
              "status": "met"
            },
            {
              "id": "SINL-CPE-011-2020-16271",
              "title": "APERTURA ECONÓMICA",
              "type": "assessment",
              "description": "APERTURA ECONÓMICA",
              "code": "APERTURA ECONÓMICA",
              "dueDate": "2020-08-10T00:00:00-05:00",
              "dateMet": "2020-08-10T00:00:00-05:00",
              "dateModified": "2020-08-10T00:00:00-05:00",
              "status": "met"
            },
            {
              "id": "SINL-CPE-011-2020-16272",
              "title": "FALLO",
              "type": "engagement",
              "description": "FALLO",
              "code": "FALLO",
              "dueDate": "2020-08-19T00:00:00-05:00",
              "dateMet": "2020-08-19T00:00:00-05:00",
              "dateModified": "2020-08-19T00:00:00-05:00",
              "status": "met"
            },
            {
              "id": "SINL-CPE-011-2020-16273",
              "title": "FIRMA DEL CONTRATO",
              "type": "approval",
              "description": "FIRMA DEL CONTRATO",
              "code": "FIRMA DEL CONTRATO",
              "dueDate": "2020-08-20T00:00:00-05:00",
              "dateMet": "2020-08-20T00:00:00-05:00",
              "dateModified": "2020-08-20T00:00:00-05:00",
              "status": "met"
            }
          ]
        },
        "awards": [
          {
            "id": "SINL-CPE-011-2020",
            "title": "Adecuación al Teatro Municipal de  Allende ( Áreas Generales y Complementarias) ",
            "description": "Los trabajos a realizar son: la remodelacion del lobby interior, exterior, camerinos, salón polivalente, taquilla, oficinas, snack, sanitarios y la calle peatonal así como la cisterna y el cuarto de máquinas.",
            "status": "active",
            "date": "2020-08-19T00:00:00-05:00",
            "value": {
              "amount": 8249967.22,
              "currency": "MXN"
            },
            "suppliers": [
              {
                "id": "MX-RFC-CDY980323MA8",
                "name": "CONSTRUCCIONES DYNAMO, S.A. DE C.V."
              }
            ],
            "contractPeriod": {
              "startDate": "2020-09-07T00:00:00-05:00",
              "endDate": "2020-12-31T00:00:00-06:00",
              "durationInDays": 115
            },
            "documents": [
              {
                "id": "414",
                "documentType": "awardNotice",
                "title": "Resultado de las evaluaciones de la licitación",
                "description": "Resultado de las evaluaciones de la licitación",
                "url": "http://si.nl.gob.mx/acceso/DatosAbiertos/DocumentosPublicos/Proyecto_0000294/Concurso_0000652/80.-DICTAMEN.pdf",
                "datePublished": "2020-09-16T12:56:42-05:00",
                "format": "application/pdf",
                "language": "es",
                "x_section": "award"
              },
              {
                "id": "418",
                "documentType": "awardNotice",
                "title": "Fallo de licitaciones",
                "description": "Fallo de licitaciones",
                "url": "http://si.nl.gob.mx/acceso/DatosAbiertos/DocumentosPublicos/Proyecto_0000294/Concurso_0000652/ACTA_DE_FALLO_SINLCPE011_20200819_153648.pdf",
                "datePublished": "2020-09-17T13:12:45-05:00",
                "format": "application/pdf",
                "language": "es",
                "x_section": "award"
              },
              {
                "id": "419",
                "documentType": "winningBid",
                "title": "Oferta Ganadora",
                "description": "Oferta Ganadora",
                "url": "http://si.nl.gob.mx/acceso/DatosAbiertos/DocumentosPublicos/Proyecto_0000294/Concurso_0000652/PROPUESTAGANADORADYNAMO.rar",
                "datePublished": "2020-09-17T13:13:34-05:00",
                "format": "application/vnd.rar",
                "language": "es",
                "x_section": "award"
              }
            ]
          }
        ],
        "contracts": [
          {
            "id": "2008001",
            "awardID": "SINL-CPE-011-2020",
            "title": "Adecuación al Teatro Municipal de  Allende ( Áreas Generales y Complementarias) ",
            "description": "Los trabajos a realizar son: la remodelacion del lobby interior, exterior, camerinos, salón polivalente, taquilla, oficinas, snack, sanitarios y la calle peatonal así como la cisterna y el cuarto de máquinas.",
            "status": "active",
            "x_financial_advance": 30.0,
            "x_physical_advance": 0.0,
            "period": {
              "startDate": "2020-09-07T00:00:00-05:00",
              "endDate": "2020-12-31T00:00:00-06:00",
              "maxExtentDate": "0001-01-01T00:00:00-06:00",
              "durationInDays": 115
            },
            "value": {
              "amount": 8249967.22,
              "currency": "MXN"
            },
            "x_estimatedPhysicalProgress": 5.0,
            "x_observedPhysicalProgress": 13.0,
            "items": [
              {
                "id": "000000362",
                "description": "001 VESTIBULO OFICINAS, PRELIMINARES",
                "classification": {
                  "scheme": "SINL-CU-C",
                  "id": "000000362",
                  "description": "001 VESTIBULO OFICINAS, PRELIMINARES"
                },
                "quantity": 1.0,
                "unit": {
                  "scheme": "SINL-CU-U",
                  "id": "000000221",
                  "name": "LOTE",
                  "value": {
                    "amount": 1808192.84,
                    "currency": "MXN"
                  }
                }
              },
              {
                "id": "000000563",
                "description": "002 MOVIMIENTO DE TIERRAS",
                "classification": {
                  "scheme": "SINL-CU-C",
                  "id": "000000563",
                  "description": "002 MOVIMIENTO DE TIERRAS"
                },
                "quantity": 1.0,
                "unit": {
                  "scheme": "SINL-CU-U",
                  "id": "000000221",
                  "name": "LOTE",
                  "value": {
                    "amount": 245067.91,
                    "currency": "MXN"
                  }
                }
              },
              {
                "id": "000000727",
                "description": "003 ALBAÑILERÍA",
                "classification": {
                  "scheme": "SINL-CU-C",
                  "id": "000000727",
                  "description": "003 ALBAÑILERÍA"
                },
                "quantity": 1.0,
                "unit": {
                  "scheme": "SINL-CU-U",
                  "id": "000000221",
                  "name": "LOTE",
                  "value": {
                    "amount": 4013361.76,
                    "currency": "MXN"
                  }
                }
              },
              {
                "id": "000001233",
                "description": "004 SUPERESTRUCTURA",
                "classification": {
                  "scheme": "SINL-CU-C",
                  "id": "000001233",
                  "description": "004 SUPERESTRUCTURA"
                },
                "quantity": 1.0,
                "unit": {
                  "scheme": "SINL-CU-U",
                  "id": "000000221",
                  "name": "LOTE",
                  "value": {
                    "amount": 17546366.4,
                    "currency": "MXN"
                  }
                }
              },
              {
                "id": "000001401",
                "description": "005 CARPINTERÍA",
                "classification": {
                  "scheme": "SINL-CU-C",
                  "id": "000001401",
                  "description": "005 CARPINTERÍA"
                },
                "quantity": 1.0,
                "unit": {
                  "scheme": "SINL-CU-U",
                  "id": "000000221",
                  "name": "LOTE",
                  "value": {
                    "amount": 3784712.79,
                    "currency": "MXN"
                  }
                }
              },
              {
                "id": "000001595",
                "description": "006 CANCELERÍA",
                "classification": {
                  "scheme": "SINL-CU-C",
                  "id": "000001595",
                  "description": "006 CANCELERÍA"
                },
                "quantity": 1.0,
                "unit": {
                  "scheme": "SINL-CU-U",
                  "id": "000000221",
                  "name": "LOTE",
                  "value": {
                    "amount": 9506449.24,
                    "currency": "MXN"
                  }
                }
              },
              {
                "id": "000001787",
                "description": "007 ACABADOS",
                "classification": {
                  "scheme": "SINL-CU-C",
                  "id": "000001787",
                  "description": "007 ACABADOS"
                },
                "quantity": 1.0,
                "unit": {
                  "scheme": "SINL-CU-U",
                  "id": "000000221",
                  "name": "LOTE",
                  "value": {
                    "amount": 12366169.35,
                    "currency": "MXN"
                  }
                }
              },
              {
                "id": "000002027",
                "description": "008 INFRAESTRUCTURA Y SERVICIOS URBANOS",
                "classification": {
                  "scheme": "SINL-CU-C",
                  "id": "000002027",
                  "description": "008 INFRAESTRUCTURA Y SERVICIOS URBANOS"
                },
                "quantity": 1.0,
                "unit": {
                  "scheme": "SINL-CU-U",
                  "id": "000000221",
                  "name": "LOTE",
                  "value": {
                    "amount": 2416136.39,
                    "currency": "MXN"
                  }
                }
              },
              {
                "id": "000002209",
                "description": "009 INSTALACIONES HIDRAULICAS",
                "classification": {
                  "scheme": "SINL-CU-C",
                  "id": "000002209",
                  "description": "009 INSTALACIONES HIDRAULICAS"
                },
                "quantity": 1.0,
                "unit": {
                  "scheme": "SINL-CU-U",
                  "id": "000000221",
                  "name": "LOTE",
                  "value": {
                    "amount": 91211.56,
                    "currency": "MXN"
                  }
                }
              },
              {
                "id": "000002381",
                "description": "010 INSTALACIONES SANITARIAS",
                "classification": {
                  "scheme": "SINL-CU-C",
                  "id": "000002381",
                  "description": "010 INSTALACIONES SANITARIAS"
                },
                "quantity": 1.0,
                "unit": {
                  "scheme": "SINL-CU-U",
                  "id": "000000221",
                  "name": "LOTE",
                  "value": {
                    "amount": 151894.66,
                    "currency": "MXN"
                  }
                }
              },
              {
                "id": "000002540",
                "description": "011 LÍNEA DE DESCARGA A REGISTRO (SANITARIO)",
                "classification": {
                  "scheme": "SINL-CU-C",
                  "id": "000002540",
                  "description": "011 LÍNEA DE DESCARGA A REGISTRO (SANITARIO)"
                },
                "quantity": 1.0,
                "unit": {
                  "scheme": "SINL-CU-U",
                  "id": "000000221",
                  "name": "LOTE",
                  "value": {
                    "amount": 66838.22,
                    "currency": "MXN"
                  }
                }
              },
              {
                "id": "000002673",
                "description": "012 MUEBLES SANITARIOS",
                "classification": {
                  "scheme": "SINL-CU-C",
                  "id": "000002673",
                  "description": "012 MUEBLES SANITARIOS"
                },
                "quantity": 1.0,
                "unit": {
                  "scheme": "SINL-CU-U",
                  "id": "000000221",
                  "name": "LOTE",
                  "value": {
                    "amount": 7567572.78,
                    "currency": "MXN"
                  }
                }
              },
              {
                "id": "000002824",
                "description": "013 SEÑALÉTICA",
                "classification": {
                  "scheme": "SINL-CU-C",
                  "id": "000002824",
                  "description": "013 SEÑALÉTICA"
                },
                "quantity": 1.0,
                "unit": {
                  "scheme": "SINL-CU-U",
                  "id": "000000221",
                  "name": "LOTE",
                  "value": {
                    "amount": 3339776.48,
                    "currency": "MXN"
                  }
                }
              },
              {
                "id": "000002865",
                "description": "014 AREA EXTERIOR PRELIMINARES",
                "classification": {
                  "scheme": "SINL-CU-C",
                  "id": "000002865",
                  "description": "014 AREA EXTERIOR PRELIMINARES"
                },
                "quantity": 1.0,
                "unit": {
                  "scheme": "SINL-CU-U",
                  "id": "000000221",
                  "name": "LOTE",
                  "value": {
                    "amount": 1362197.4,
                    "currency": "MXN"
                  }
                }
              },
              {
                "id": "000003043",
                "description": "015 MOVIMIENTO DE TIERRAS",
                "classification": {
                  "scheme": "SINL-CU-C",
                  "id": "000003043",
                  "description": "015 MOVIMIENTO DE TIERRAS"
                },
                "quantity": 1.0,
                "unit": {
                  "scheme": "SINL-CU-U",
                  "id": "000000221",
                  "name": "LOTE",
                  "value": {
                    "amount": 804255.61,
                    "currency": "MXN"
                  }
                }
              },
              {
                "id": "000003078",
                "description": "016 ALBAÑILERÍA",
                "classification": {
                  "scheme": "SINL-CU-C",
                  "id": "000003078",
                  "description": "016 ALBAÑILERÍA"
                },
                "quantity": 1.0,
                "unit": {
                  "scheme": "SINL-CU-U",
                  "id": "000000221",
                  "name": "LOTE",
                  "value": {
                    "amount": 8771091.28,
                    "currency": "MXN"
                  }
                }
              },
              {
                "id": "000003190",
                "description": "017 INFRAESTRUCTURA Y SERVICIOS URBANOS",
                "classification": {
                  "scheme": "SINL-CU-C",
                  "id": "000003190",
                  "description": "017 INFRAESTRUCTURA Y SERVICIOS URBANOS"
                },
                "quantity": 1.0,
                "unit": {
                  "scheme": "SINL-CU-U",
                  "id": "000000221",
                  "name": "LOTE",
                  "value": {
                    "amount": 679645.38,
                    "currency": "MXN"
                  }
                }
              },
              {
                "id": "000003260",
                "description": "018 EQUIPAMIENTO URBANO",
                "classification": {
                  "scheme": "SINL-CU-C",
                  "id": "000003260",
                  "description": "018 EQUIPAMIENTO URBANO"
                },
                "quantity": 1.0,
                "unit": {
                  "scheme": "SINL-CU-U",
                  "id": "000000221",
                  "name": "LOTE",
                  "value": {
                    "amount": 7616062.05,
                    "currency": "MXN"
                  }
                }
              },
              {
                "id": "000003316",
                "description": "019 ALUMBRADO",
                "classification": {
                  "scheme": "SINL-CU-C",
                  "id": "000003316",
                  "description": "019 ALUMBRADO"
                },
                "quantity": 1.0,
                "unit": {
                  "scheme": "SINL-CU-U",
                  "id": "000000221",
                  "name": "LOTE",
                  "value": {
                    "amount": 1944299.52,
                    "currency": "MXN"
                  }
                }
              },
              {
                "id": "000003407",
                "description": "020 LIMPIEZA FINAL DE LA OBRA",
                "classification": {
                  "scheme": "SINL-CU-C",
                  "id": "000003407",
                  "description": "020 LIMPIEZA FINAL DE LA OBRA"
                },
                "quantity": 1.0,
                "unit": {
                  "scheme": "SINL-CU-U",
                  "id": "000000221",
                  "name": "LOTE",
                  "value": {
                    "amount": 323379.44,
                    "currency": "MXN"
                  }
                }
              },
              {
                "id": "000003442",
                "description": "021 CISTERNA Y CUARTO DE MAQUINA PRELIMINARES",
                "classification": {
                  "scheme": "SINL-CU-C",
                  "id": "000003442",
                  "description": "021 CISTERNA Y CUARTO DE MAQUINA PRELIMINARES"
                },
                "quantity": 1.0,
                "unit": {
                  "scheme": "SINL-CU-U",
                  "id": "000000221",
                  "name": "LOTE",
                  "value": {
                    "amount": 7341438.13,
                    "currency": "MXN"
                  }
                }
              },
              {
                "id": "000003498",
                "description": "022 ESTRUCTURA EN ESCALERAS",
                "classification": {
                  "scheme": "SINL-CU-C",
                  "id": "000003498",
                  "description": "022 ESTRUCTURA EN ESCALERAS"
                },
                "quantity": 1.0,
                "unit": {
                  "scheme": "SINL-CU-U",
                  "id": "000000221",
                  "name": "LOTE",
                  "value": {
                    "amount": 10292305.41,
                    "currency": "MXN"
                  }
                }
              },
              {
                "id": "000003543",
                "description": "023 ELECTRICO E ILUMINACIÓN",
                "classification": {
                  "scheme": "SINL-CU-C",
                  "id": "000003543",
                  "description": "023 ELECTRICO E ILUMINACIÓN"
                },
                "quantity": 1.0,
                "unit": {
                  "scheme": "SINL-CU-U",
                  "id": "000000221",
                  "name": "LOTE",
                  "value": {
                    "amount": 18866267.48,
                    "currency": "MXN"
                  }
                }
              }
            ],
            "dateSigned": "2020-08-20T00:00:00-05:00",
            "documents": [
              {
                "id": "397",
                "documentType": "contractSigned\r\n",
                "title": "Contrato firmado",
                "description": "Contrato firmado",
                "url": "http://si.nl.gob.mx/acceso/DatosAbiertos/DocumentosPublicos/Proyecto_0000294/Concurso_0000652/CONTRATO_20-08-001.pdf",
                "datePublished": "2020-08-28T16:31:41-05:00",
                "format": "application/pdf",
                "language": "es",
                "x_section": "contract"
              }
            ],
            "implementation": {
              "transactions": [
                {
                  "id": "EST-2020-09-612",
                  "date": "2020-09-04T16:31:57-05:00",
                  "value": {
                    "amount": 2474990.16,
                    "currency": "MXN"
                  },
                  "payer": {
                    "name": "Secretaría de Finanzas y Tesorería General del Estado del Estado de Nuevo León",
                    "id": "MX-IGNL-211113040100001"
                  },
                  "payee": {
                    "name": "CONSTRUCCIONES DYNAMO, S.A. DE C.V.",
                    "id": "CDY980323MA8"
                  }
                }
              ],
              "documents": [
                {
                  "id": "413",
                  "documentType": "physicalProgressReport",
                  "title": "Reportes de supervisión 2020-09-10",
                  "description": "Reportes de supervisión",
                  "url": "http://si.nl.gob.mx/acceso/DatosAbiertos/DocumentosPublicos/Proyecto_0000294/Concurso_0000652/2008001_ReporteObra_10sep20.pdf",
                  "datePublished": "2020-09-16T12:52:04-05:00",
                  "format": "application/pdf",
                  "language": "es",
                  "x_section": "implementarion"
                },
                {
                  "id": "2259",
                  "documentType": "physicalProgressReport",
                  "title": "Reportes de supervisión 2020-09-17",
                  "description": "Reportes de supervisión",
                  "url": "http://si.nl.gob.mx/acceso/DatosAbiertos/DocumentosPublicos/Proyecto_0000294/Concurso_0000652/2008001_ReporteObra_17sep20.pdf",
                  "datePublished": "2020-09-16T12:52:04-05:00",
                  "format": "application/pdf",
                  "language": "es",
                  "x_section": "implementarion"
                }
              ]
            },
            "milestones": [
            ]
          }
        ],
        "language": "es"
      }
    }
  ]
}